127.0.0.1 - - [06/Mar/2017:14:11:35 +0200] "GET /server/api/aaa HTTP/1.1" 404 1020
127.0.0.1 - - [06/Mar/2017:14:12:15 +0200] "GET /server/api/aaa HTTP/1.1" 404 1020
127.0.0.1 - - [06/Mar/2017:14:12:22 +0200] "GET /server/api/aaa HTTP/1.1" 404 1020
127.0.0.1 - - [06/Mar/2017:14:16:34 +0200] "GET /server/rest/api/aaa HTTP/1.1" 404 1008
127.0.0.1 - - [06/Mar/2017:14:19:49 +0200] "GET /server/api/aaa HTTP/1.1" 200 1
127.0.0.1 - - [06/Mar/2017:14:21:06 +0200] "GET /server/api/aaa HTTP/1.1" 200 3
127.0.0.1 - - [06/Mar/2017:14:21:09 +0200] "GET /server/api/bbb HTTP/1.1" 200 3
16.109.214.90 - - [06/Mar/2017:14:43:48 +0200] "GET / HTTP/1.1" 200 11248
16.109.214.90 - - [06/Mar/2017:14:43:49 +0200] "OPTIONS / HTTP/1.1" 405 1084
16.109.214.90 - - [06/Mar/2017:14:43:49 +0200] "PROPFIND / HTTP/1.1" 405 1084
16.109.214.90 - - [06/Mar/2017:14:43:49 +0200] "OPTIONS * HTTP/1.1" 200 -
16.109.214.90 - - [06/Mar/2017:14:44:32 +0200] "GET /console/login/LoginForm.jsp HTTP/1.1" 404 1046
16.109.214.90 - - [06/Mar/2017:14:44:32 +0200] "GET /Rapid7/JBoss/version-check-9CE1KO.html HTTP/1.1" 404 1068
16.109.214.90 - - [06/Mar/2017:14:44:33 +0200] "GET /igsponsor HTTP/1.1" 404 1010
16.109.214.90 - - [06/Mar/2017:14:44:33 +0200] "GET / HTTP/1.1" 200 11248
16.109.214.90 - - [06/Mar/2017:14:44:33 +0200] "GET /jira/secure/Dashboard.jspa HTTP/1.1" 404 1044
16.109.214.90 - - [06/Mar/2017:14:44:33 +0200] "GET / HTTP/1.1" 200 11248
16.109.214.90 - - [06/Mar/2017:14:44:34 +0200] "GET /secure/Dashboard.jspa HTTP/1.1" 404 1034
16.109.214.90 - - [06/Mar/2017:14:44:34 +0200] "GET /reviews HTTP/1.1" 404 1006
16.109.214.90 - - [06/Mar/2017:14:44:34 +0200] "GET /login.jsp HTTP/1.1" 404 1010
16.109.214.90 - - [06/Mar/2017:14:44:34 +0200] "GET / HTTP/1.1" 200 11248
16.109.214.90 - - [06/Mar/2017:14:44:34 +0200] "GET /spiffymcgee.nsf HTTP/1.1" 404 1022
16.109.214.90 - - [06/Mar/2017:14:44:34 +0200] "GET /login HTTP/1.1" 404 1002
16.109.214.90 - - [06/Mar/2017:14:44:35 +0200] "GET /administrator/manifests/files/joomla.xml HTTP/1.1" 404 1072
16.109.214.90 - - [06/Mar/2017:14:44:35 +0200] "GET / HTTP/1.1" 200 11248
16.109.214.90 - - [06/Mar/2017:14:44:35 +0200] "GET /administrator/language/en-GB/en-GB.xml HTTP/1.1" 404 1068
16.109.214.90 - - [06/Mar/2017:14:44:35 +0200] "GET /login HTTP/1.1" 404 1002
16.109.214.90 - - [06/Mar/2017:14:44:36 +0200] "GET /language/en-GB/en-GB.xml HTTP/1.1" 404 1040
16.109.214.90 - - [06/Mar/2017:14:44:36 +0200] "GET / HTTP/1.1" 200 11248
16.109.214.90 - - [06/Mar/2017:14:44:36 +0200] "GET /spiffymcgee.cfm HTTP/1.1" 404 1022
16.109.214.90 - - [06/Mar/2017:14:44:36 +0200] "GET /login.action HTTP/1.1" 404 1016
16.109.214.90 - - [06/Mar/2017:14:44:36 +0200] "GET / HTTP/1.1" 200 11248
16.109.214.90 - - [06/Mar/2017:14:44:36 +0200] "GET /login HTTP/1.1" 404 1002
16.109.214.90 - - [06/Mar/2017:14:44:37 +0200] "GET / HTTP/1.1" 200 11248
16.109.214.90 - - [06/Mar/2017:14:44:37 +0200] "GET /login HTTP/1.1" 404 1002
16.109.214.90 - - [06/Mar/2017:14:44:37 +0200] "GET /jbossws/ HTTP/1.1" 404 1008
16.109.214.90 - - [06/Mar/2017:14:44:37 +0200] "GET /owa/auth/logon.aspx HTTP/1.1" 404 1030
16.109.214.90 - - [06/Mar/2017:14:44:37 +0200] "GET /invoker/ HTTP/1.1" 404 1008
16.109.214.90 - - [06/Mar/2017:14:44:37 +0200] "GET /owa/auth/logon.aspx HTTP/1.1" 404 1030
16.109.214.90 - - [06/Mar/2017:14:44:38 +0200] "GET /jbossmq-httpil/ HTTP/1.1" 404 1022
16.109.214.90 - - [06/Mar/2017:14:44:38 +0200] "GET /owa/auth/logon.aspx HTTP/1.1" 404 1030
16.109.214.90 - - [06/Mar/2017:14:44:38 +0200] "GET /status/ HTTP/1.1" 404 1006
16.109.214.90 - - [06/Mar/2017:14:44:38 +0200] "GET /console/App.html HTTP/1.1" 404 1024
16.109.214.90 - - [06/Mar/2017:14:44:38 +0200] "GET /servlet/ HTTP/1.1" 404 1008
16.109.214.90 - - [06/Mar/2017:14:44:38 +0200] "GET / HTTP/1.1" 200 11248
16.109.214.90 - - [06/Mar/2017:14:44:39 +0200] "GET / HTTP/1.1" 200 11248
16.109.214.90 - - [06/Mar/2017:14:44:39 +0200] "GET /php/login.php HTTP/1.1" 404 1018
16.109.214.90 - - [06/Mar/2017:14:44:39 +0200] "GET /xmldata?item=All HTTP/1.1" 404 1006
16.109.214.90 - - [06/Mar/2017:14:44:39 +0200] "GET / HTTP/1.1" 200 11248
16.109.214.90 - - [06/Mar/2017:14:44:40 +0200] "GET /spiffymcgee.jsp HTTP/1.1" 404 1022
16.109.214.90 - - [06/Mar/2017:14:44:40 +0200] "GET %. HTTP/1.1" 400 -
16.109.214.90 - - [06/Mar/2017:14:44:40 +0200] "GET %server.policy HTTP/1.1" 400 -
16.109.214.90 - - [06/Mar/2017:14:44:41 +0200] "GET %login-config.xml HTTP/1.1" 400 -
16.109.214.90 - - [06/Mar/2017:14:44:41 +0200] "GET %org/jboss/version.properties HTTP/1.1" 400 -
16.109.214.90 - - [06/Mar/2017:14:44:41 +0200] "POST /.jsp HTTP/1.1" 500 -
16.109.214.90 - - [06/Mar/2017:14:44:42 +0200] "GET / HTTP/1.1" 200 11248
16.109.214.90 - - [06/Mar/2017:14:44:42 +0200] "GET / HTTP/1.1" 200 11248
16.109.214.90 - - [06/Mar/2017:14:44:46 +0200] "GET /phpmyadmin/ HTTP/1.1" 404 1014
16.109.214.90 - - [06/Mar/2017:14:44:46 +0200] "GET /console/faces/com_sun_web_ui/jsp/version/version_30.jsp HTTP/1.1" 404 1102
16.109.214.90 - - [06/Mar/2017:14:44:46 +0200] "GET /console/faces/com_sun_web_ui/jsp/version/version_4.jsp HTTP/1.1" 404 1100
16.109.214.90 - - [06/Mar/2017:14:45:01 +0200] "GET /r7.txt HTTP/1.1" 404 1004
16.109.214.90 - - [06/Mar/2017:14:45:01 +0200] "GET / HTTP/1.1" 200 11248
16.109.214.90 - - [06/Mar/2017:14:45:01 +0200] "GET /CFIDE/administrator/enter.cfm?locale=../../../../../../../lib/password.properties%00en HTTP/1.1" 404 1050
16.109.214.90 - - [06/Mar/2017:14:45:01 +0200] "PUT /r7.txt HTTP/1.1" 403 1002
16.109.214.90 - - [06/Mar/2017:14:45:01 +0200] "GET /CFIDE/componentutils/cfcexplorer.cfc?method=getcfcinhtml&name=CFIDE.componentutils.cfcexplorer&path=../../../license.txt HTTP/1.1" 404 1064
16.109.214.90 - - [06/Mar/2017:14:45:01 +0200] "GET /CFIDE/adminapi/customtags/soft404validationcheck.cfm HTTP/1.1" 404 1096
16.109.214.90 - - [06/Mar/2017:14:45:01 +0200] "GET /CFIDE/soft404validationcheck.cfm HTTP/1.1" 404 1056
16.109.214.90 - - [06/Mar/2017:14:45:01 +0200] "GET /CFIDE/componentutils/cfcexplorer.cfc?method=getcfcinhtml&name=CFIDE.componentutils.cfcexplorer&path=../../../../license.html HTTP/1.1" 404 1064
16.109.214.90 - - [06/Mar/2017:14:45:01 +0200] "GET /r7.txt HTTP/1.1" 404 1004
16.109.214.90 - - [06/Mar/2017:14:45:02 +0200] "GET /CFIDE/adminapi/customtags/l10n.cfm?attributes.id=test&attributes.file=../../administrator/mail/download.cfm&filename=../../lib/password.properties&attributes.locale=it&attributes.var=it&attributes.jscript=false&attributes.type=text/html&attributes.charset=UTF-8&thisTag.executionmode=end&thisTag.generatedContent=test HTTP/1.1" 404 1060
16.109.214.90 - - [06/Mar/2017:14:45:02 +0200] "GET /CFIDE/adminapi/customtags/fusebox.cfm HTTP/1.1" 404 1066
16.109.214.90 - - [06/Mar/2017:14:45:02 +0200] "GET / HTTP/1.1" 200 11248
16.109.214.90 - - [06/Mar/2017:14:45:02 +0200] "GET /CFIDE/adminapi/customtags/l10n.cfm?attributes.id=test&attributes.file=../../administrator/mail/download.cfm&filename=../lib/password.properties&attributes.locale=it&attributes.var=it&attributes.jscript=false&attributes.type=text/html&attributes.charset=UTF-8&thisTag.executionmode=end&thisTag.generatedContent=test HTTP/1.1" 404 1060
16.109.214.90 - - [06/Mar/2017:14:45:02 +0200] "HEAD /index.php HTTP/1.1" 404 -
16.109.214.90 - - [06/Mar/2017:14:45:02 +0200] "GET /CFIDE/adminapi/customtags/adss.cfm HTTP/1.1" 404 1060
16.109.214.90 - - [06/Mar/2017:14:45:02 +0200] "GET /CFIDE/h.cfm HTTP/1.1" 404 1014
16.109.214.90 - - [06/Mar/2017:14:45:02 +0200] "GET /struts2-blank/example/HelloWorld.action HTTP/1.1" 404 1070
16.109.214.90 - - [06/Mar/2017:14:45:02 +0200] "GET /struts2-showcase/employee/save.action HTTP/1.1" 404 1066
16.109.214.90 - - [06/Mar/2017:14:45:02 +0200] "GET / HTTP/1.1" 200 11248
16.109.214.90 - - [06/Mar/2017:14:45:02 +0200] "GET /CFIDE/h9.cfm HTTP/1.1" 404 1016
16.109.214.90 - - [06/Mar/2017:14:45:02 +0200] "GET /conf/ssl/apache/integrity.key HTTP/1.1" 404 1050
16.109.214.90 - - [06/Mar/2017:14:45:02 +0200] "GET /CFIDE/help.cfm HTTP/1.1" 404 1020
16.109.214.90 - - [06/Mar/2017:14:45:03 +0200] "POST /flex2gateway/http HTTP/1.1" 404 1026
16.109.214.90 - - [06/Mar/2017:14:45:03 +0200] "GET /portal/diag/index.jsp HTTP/1.1" 404 1034
16.109.214.90 - - [06/Mar/2017:14:45:03 +0200] "GET /conf/ssl/apache/integrity-smartcenter.key HTTP/1.1" 404 1074
16.109.214.90 - - [06/Mar/2017:14:45:03 +0200] "GET /CFIDE/i.cfm HTTP/1.1" 404 1014
16.109.214.90 - - [06/Mar/2017:14:45:03 +0200] "POST /flex2gateway/httpsecure HTTP/1.1" 404 1038
16.109.214.90 - - [06/Mar/2017:14:45:03 +0200] "GET /CFIDE/r.cfm HTTP/1.1" 404 1014
16.109.214.90 - - [06/Mar/2017:14:45:03 +0200] "POST /messagebroker/http HTTP/1.1" 404 1028
16.109.214.90 - - [06/Mar/2017:14:45:03 +0200] "GET /cgi-bin/awstats.pl?debug=1 HTTP/1.1" 404 1028
16.109.214.90 - - [06/Mar/2017:14:45:03 +0200] "GET /cgi-bin/awstats.pl?PluginMode=:print+%22x%22%2e(1042+%2b+1099)%2e%22x%22; HTTP/1.1" 404 1028
16.109.214.90 - - [06/Mar/2017:14:45:03 +0200] "POST /messagebroker/httpsecure HTTP/1.1" 404 1040
16.109.214.90 - - [06/Mar/2017:14:45:03 +0200] "GET /cgi-bin/awstats/awstats.pl?debug=1 HTTP/1.1" 404 1044
16.109.214.90 - - [06/Mar/2017:14:45:03 +0200] "GET /cgi-bin/awstats/awstats.pl?PluginMode=:print+%22x%22%2e(1042+%2b+1099)%2e%22x%22; HTTP/1.1" 404 1044
16.109.214.90 - - [06/Mar/2017:14:45:03 +0200] "GET /bb/ HTTP/1.1" 404 998
16.109.214.90 - - [06/Mar/2017:14:45:03 +0200] "POST /blazeds/messagebroker/http HTTP/1.1" 404 1044
16.109.214.90 - - [06/Mar/2017:14:45:03 +0200] "POST /blazeds/messagebroker/httpsecure HTTP/1.1" 404 1056
16.109.214.90 - - [06/Mar/2017:14:45:03 +0200] "GET /cgi-bin/faxsurvey?/bin/cat%20/etc/passwd HTTP/1.1" 404 1026
16.109.214.90 - - [06/Mar/2017:14:45:03 +0200] "GET /cgi-bin/htgrep/file=index.html&hdr=/etc/passwd HTTP/1.1" 404 1092
16.109.214.90 - - [06/Mar/2017:14:45:03 +0200] "GET /cgi-bin/htsearch?Exclude=%60/etc/passwd%60 HTTP/1.1" 404 1024
16.109.214.90 - - [06/Mar/2017:14:45:04 +0200] "POST /samples/messagebroker/http HTTP/1.1" 404 1044
16.109.214.90 - - [06/Mar/2017:14:45:04 +0200] "GET /cgi-bin/faxquery?/bin/cat%20/etc/passwd HTTP/1.1" 404 1024
16.109.214.90 - - [06/Mar/2017:14:45:04 +0200] "POST /samples/messagebroker/httpsecure HTTP/1.1" 404 1056
16.109.214.90 - - [06/Mar/2017:14:45:04 +0200] "POST /cgi-bin/test-cgi HTTP/1.1" 404 1024
16.109.214.90 - - [06/Mar/2017:14:45:04 +0200] "GET /cgi-bin/htmlscript?../../../../../../../etc/passwd HTTP/1.1" 404 1028
16.109.214.90 - - [06/Mar/2017:14:45:04 +0200] "POST /lcds/messagebroker/http HTTP/1.1" 404 1038
16.109.214.90 - - [06/Mar/2017:14:45:04 +0200] "GET /cgi-bin/view-source?../../../../../../../etc/passwd HTTP/1.1" 404 1030
16.109.214.90 - - [06/Mar/2017:14:45:04 +0200] "POST /lcds/messagebroker/httpsecure HTTP/1.1" 404 1050
16.109.214.90 - - [06/Mar/2017:14:45:04 +0200] "GET /CFIDE/adminapi/base.cfc?wsdl HTTP/1.1" 404 1038
16.109.214.90 - - [06/Mar/2017:14:45:04 +0200] "GET /CFIDE/adminiapi/ HTTP/1.1" 404 1024
16.109.214.90 - - [06/Mar/2017:14:45:04 +0200] "POST /lcds-samples/messagebroker/http HTTP/1.1" 404 1054
16.109.214.90 - - [06/Mar/2017:14:45:04 +0200] "GET /CFIDE/administrator/ HTTP/1.1" 404 1032
16.109.214.90 - - [06/Mar/2017:14:45:05 +0200] "POST /lcds-samples/messagebroker/httpsecure HTTP/1.1" 404 1066
16.109.214.90 - - [06/Mar/2017:14:45:05 +0200] "GET /CFIDE/administrator/enter.cfm HTTP/1.1" 404 1050
16.109.214.90 - - [06/Mar/2017:14:45:05 +0200] "GET /CFIDE/AIR/ HTTP/1.1" 404 1012
16.109.214.90 - - [06/Mar/2017:14:45:05 +0200] "GET /CFIDE/appdeployment/ HTTP/1.1" 404 1032
16.109.214.90 - - [06/Mar/2017:14:45:05 +0200] "GET /CFIDE/componentutils/ HTTP/1.1" 404 1034
16.109.214.90 - - [06/Mar/2017:14:45:05 +0200] "GET /CFIDE/orm/ HTTP/1.1" 404 1012
16.109.214.90 - - [06/Mar/2017:14:45:05 +0200] "GET /CFIDE/portlets/ HTTP/1.1" 404 1022
16.109.214.90 - - [06/Mar/2017:14:45:05 +0200] "GET /CFIDE/scheduler/ HTTP/1.1" 404 1024
16.109.214.90 - - [06/Mar/2017:14:45:05 +0200] "GET /CFIDE/servermanager/ HTTP/1.1" 404 1032
16.109.214.90 - - [06/Mar/2017:14:45:05 +0200] "GET /CFIDE/services/ HTTP/1.1" 404 1022
16.109.214.90 - - [06/Mar/2017:14:45:05 +0200] "GET /CFIDE/websocket/ HTTP/1.1" 404 1024
16.109.214.90 - - [06/Mar/2017:14:45:05 +0200] "GET /CFIDE/wizards/common/ HTTP/1.1" 404 1034
16.109.214.90 - - [06/Mar/2017:14:45:06 +0200] "GET /CFIDE/wizards/common/utils.cfc?method=verifyldapserver&vserver=localhost&vport=22&vstart=&vusername=&vpassword=&returnformat=json HTTP/1.1" 404 1052
16.109.214.90 - - [06/Mar/2017:14:45:06 +0200] "GET /_vti_bin/_vti_aut/author.dll HTTP/1.1" 404 1048
16.109.214.90 - - [06/Mar/2017:14:45:06 +0200] "GET /~bin/true HTTP/1.1" 404 1010
16.109.214.90 - - [06/Mar/2017:14:45:06 +0200] "GET /scripts/tools/newdsn.exe?driver=Microsoft%2BAccess%2BDriver%2B%28*.mdb%29&dsn=Web%20SQL&dbq=c:%5Ctemp%5Cxyz.mdb&newdb=CREATE_DB&attr= HTTP/1.1" 404 1040
16.109.214.90 - - [06/Mar/2017:14:45:06 +0200] "HEAD / HTTP/1.1" 200 -
16.109.214.90 - - [06/Mar/2017:14:45:06 +0200] "GET /cgi-bin/php.ini HTTP/1.1" 404 1022
16.109.214.90 - - [06/Mar/2017:14:45:06 +0200] "POST /xmlrpc.php HTTP/1.1" 404 1012
16.109.214.90 - - [06/Mar/2017:14:45:06 +0200] "GET null null" 400 -
16.109.214.90 - - [06/Mar/2017:14:45:06 +0200] "GET /phpmyadmin/ HTTP/1.1" 404 1014
16.109.214.90 - - [06/Mar/2017:14:45:06 +0200] "POST /serendipity/serendipity_xmlrpc.php HTTP/1.1" 404 1060
16.109.214.90 - - [06/Mar/2017:14:45:06 +0200] "GET /README.txt HTTP/1.1" 404 1012
16.109.214.90 - - [06/Mar/2017:14:45:06 +0200] "GET /jkstatus/ HTTP/1.1" 404 1010
16.109.214.90 - - [06/Mar/2017:14:45:06 +0200] "POST /serendipity/xmlrpc.php HTTP/1.1" 404 1036
16.109.214.90 - - [06/Mar/2017:14:45:06 +0200] "GET null null" 400 -
16.109.214.90 - - [06/Mar/2017:14:45:06 +0200] "TRACE / HTTP/1.1" 405 -
16.109.214.90 - - [06/Mar/2017:14:45:07 +0200] "POST /drupal/xmlrpc.php HTTP/1.1" 404 1026
16.109.214.90 - - [06/Mar/2017:14:45:07 +0200] "TRACK / HTTP/1.1" 405 1084
16.109.214.90 - - [06/Mar/2017:14:45:07 +0200] "GET /crossdomain.xml HTTP/1.1" 404 1022
16.109.214.90 - - [06/Mar/2017:14:45:07 +0200] "GET /c99.php HTTP/1.1" 404 1006
16.109.214.90 - - [06/Mar/2017:14:45:07 +0200] "POST /bblog/xmlrpc.php HTTP/1.1" 404 1024
16.109.214.90 - - [06/Mar/2017:14:45:07 +0200] "POST /blogs/xmlsrv/xmlrpc.php HTTP/1.1" 404 1038
16.109.214.90 - - [06/Mar/2017:14:45:07 +0200] "POST /xmlsrv/xmlrpc.php HTTP/1.1" 404 1026
16.109.214.90 - - [06/Mar/2017:14:45:07 +0200] "POST /xmlrpc/xmlrpc.php HTTP/1.1" 404 1026
16.109.214.90 - - [06/Mar/2017:14:45:07 +0200] "POST /script/xmlrpc.php HTTP/1.1" 404 1026
