127.0.0.1 - - [09/Mar/2017:19:29:41 +0200] "GET /rest/api/aaa HTTP/1.1" 404 1016
127.0.0.1 - - [09/Mar/2017:19:30:20 +0200] "GET /server/api/bbb HTTP/1.1" 200 3
127.0.0.1 - - [09/Mar/2017:19:30:24 +0200] "GET /server/api/aaa HTTP/1.1" 200 3
127.0.0.1 - - [09/Mar/2017:20:07:10 +0200] "GET /server/api/aaa HTTP/1.1" 200 3
127.0.0.1 - - [09/Mar/2017:20:08:48 +0200] "GET /server/api/bbb HTTP/1.1" 200 3
127.0.0.1 - - [09/Mar/2017:20:17:48 +0200] "GET /server/api/ccc HTTP/1.1" 200 3
127.0.0.1 - - [09/Mar/2017:20:17:59 +0200] "GET /server/api/ccc HTTP/1.1" 200 3
127.0.0.1 - - [09/Mar/2017:20:18:46 +0200] "GET /server/api/cccc HTTP/1.1" 200 4
127.0.0.1 - - [09/Mar/2017:20:20:13 +0200] "GET /server/api/cccc HTTP/1.1" 200 4
127.0.0.1 - - [09/Mar/2017:20:35:08 +0200] "GET /server/api/cccc HTTP/1.1" 200 4
127.0.0.1 - - [09/Mar/2017:20:36:19 +0200] "GET /server/api/cccc HTTP/1.1" 200 4
127.0.0.1 - - [09/Mar/2017:20:36:28 +0200] "GET /server/api/cccc HTTP/1.1" 200 4
127.0.0.1 - - [09/Mar/2017:20:37:00 +0200] "GET /server/api/ddd HTTP/1.1" 200 3
127.0.0.1 - - [09/Mar/2017:20:42:53 +0200] "GET /server/api/ddd HTTP/1.1" 200 3
127.0.0.1 - - [09/Mar/2017:20:43:52 +0200] "GET /server/api/a HTTP/1.1" 200 1
